# compile vhdl design source files
vhdl xil_defaultlib  \
"../../../../ASCENSOR_VHDL.srcs/sources_1/new/contador_tiempo.vhd" \
"../../../../ASCENSOR_VHDL.srcs/sim_1/new/contador_tiempo_tb.vhd" \

# Do not sort compile order
nosort
