# compile vhdl design source files
vhdl xil_defaultlib  \
"../../../../ASCENSOR_VHDL.srcs/sources_1/new/ASCEN.vhd" \
"../../../../ASCENSOR_VHDL.srcs/sources_1/new/DEC1.vhd" \
"../../../../ASCENSOR_VHDL.srcs/sources_1/new/DEC2.vhd" \
"../../../../ASCENSOR_VHDL.srcs/sources_1/new/DEC3.vhd" \
"../../../../ASCENSOR_VHDL.srcs/sources_1/new/Debouncer.vhd" \
"../../../../ASCENSOR_VHDL.srcs/sources_1/new/Display_refresh.vhd" \
"../../../../ASCENSOR_VHDL.srcs/sources_1/new/MOTOR.vhd" \
"../../../../ASCENSOR_VHDL.srcs/sources_1/new/clock_div_1Hz.vhd" \
"../../../../ASCENSOR_VHDL.srcs/sources_1/new/TOP.vhd" \
"../../../../ASCENSOR_VHDL.srcs/sources_1/new/Debounder_2.vhd" \
"../../../../ASCENSOR_VHDL.srcs/sim_1/new/top_tb.vhd" \
"../../../../ASCENSOR_VHDL.srcs/sim_1/new/ASCEN_tb.vhd" \
"../../../../ASCENSOR_VHDL.srcs/sim_1/new/Display_Refresh_tb.vhd" \
"../../../../ASCENSOR_VHDL.srcs/sim_1/new/clock_div_1Hz_tb.vhd" \
"../../../../ASCENSOR_VHDL.srcs/sim_1/new/MOTOR_tb.vhd" \
"../../../../ASCENSOR_VHDL.srcs/sim_1/new/DEC1_tb.vhd" \

# Do not sort compile order
nosort
