# compile vhdl design source files
vhdl xil_defaultlib  \
"../../../../ASCENSOR_VHDL.srcs/sources_1/new/ASCEN.vhd" \
"../../../../ASCENSOR_VHDL.srcs/sources_1/new/DEC1.vhd" \
"../../../../ASCENSOR_VHDL.srcs/sources_1/new/DEC2.vhd" \
"../../../../ASCENSOR_VHDL.srcs/sources_1/new/DEC3.vhd" \
"../../../../ASCENSOR_VHDL.srcs/sources_1/new/Debouncer.vhd" \
"../../../../ASCENSOR_VHDL.srcs/sources_1/new/Display_refresh.vhd" \
"../../../../ASCENSOR_VHDL.srcs/sources_1/new/MOTOR.vhd" \
"../../../../ASCENSOR_VHDL.srcs/sources_1/new/PUERTTA.vhd" \
"../../../../ASCENSOR_VHDL.srcs/sources_1/new/clock_div_1Hz.vhd" \
"../../../../ASCENSOR_VHDL.srcs/sources_1/new/contador_tiempo.vhd" \
"../../../../ASCENSOR_VHDL.srcs/sources_1/new/TOP.vhd" \

# Do not sort compile order
nosort
